<svg width="500" height="500" xmlns="http://www.w3.org/2000/svg" class="svg-inline--fa fa-line fa-w-14">
 <g>
  <title>background</title>
  <rect fill="none" id="canvas_background" height="502" width="502" y="-1" x="-1"/>
 </g>

 <g>
  <title>Layer 1</title>
  <rect fill="#1d3557" stroke="null" stroke-width="null" stroke-opacity="null" x="7" y="4" width="489" height="487" id="svg_3" rx="57"/>
  <rect stroke="null" rx="57" id="svg_4" height="456.00006" width="457" y="19.45308" x="23.49998" stroke-opacity="null" stroke-width="null" fill="#03c302"/>
  <rect fill="#ffffff" stroke="null" stroke-width="null" stroke-opacity="null" x="80.5" y="46.45313" width="362" height="373" id="svg_2"/>
  <path id="svg_1" d="m300.1,196.2l0,71.1c0,1.8 -1.4,3.2 -3.2,3.2l-11.4,0c-1.1,0 -2.1,-0.6 -2.6,-1.3l-32.6,-44l0,42.2c0,1.8 -1.4,3.2 -3.2,3.2l-11.4,0c-1.8,0 -3.2,-1.4 -3.2,-3.2l0,-71.1c0,-1.8 1.4,-3.2 3.2,-3.2l11.3,0c1,0 2.1,0.5 2.6,1.4l32.6,44l0,-42.2c0,-1.8 1.4,-3.2 3.2,-3.2l11.4,0c1.8,-0.1 3.3,1.4 3.3,3.1zm-82,-3.2l-11.4,0c-1.8,0 -3.2,1.4 -3.2,3.2l0,71.1c0,1.8 1.4,3.2 3.2,3.2l11.4,0c1.8,0 3.2,-1.4 3.2,-3.2l0,-71.1c0,-1.7 -1.4,-3.2 -3.2,-3.2zm-27.5,59.6l-31.1,0l0,-56.4c0,-1.8 -1.4,-3.2 -3.2,-3.2l-11.4,0c-1.8,0 -3.2,1.4 -3.2,3.2l0,71.1c0,0.9 0.3,1.6 0.9,2.2c0.6,0.5 1.3,0.9 2.2,0.9l45.7,0c1.8,0 3.2,-1.4 3.2,-3.2l0,-11.4c0,-1.7 -1.4,-3.2 -3.1,-3.2zm169.5,-59.6l-45.7,0c-1.7,0 -3.2,1.4 -3.2,3.2l0,71.1c0,1.7 1.4,3.2 3.2,3.2l45.7,0c1.8,0 3.2,-1.4 3.2,-3.2l0,-11.4c0,-1.8 -1.4,-3.2 -3.2,-3.2l-31.1,0l0,-12l31.1,0c1.8,0 3.2,-1.4 3.2,-3.2l0,-11.5c0,-1.8 -1.4,-3.2 -3.2,-3.2l-31.1,0l0,-12l31.1,0c1.8,0 3.2,-1.4 3.2,-3.2l0,-11.4c-0.1,-1.7 -1.5,-3.2 -3.2,-3.2zm115.9,-87.3l0,285.3c-0.1,44.8 -36.8,81.1 -81.7,81l-285.3,0c-44.8,-0.1 -81.1,-36.9 -81,-81.7l0,-285.3c0.1,-44.8 36.9,-81.1 81.7,-81l285.3,0c44.8,0.1 81.1,36.8 81,81.7zm-61.6,122.6c0,-73 -73.2,-132.4 -163.1,-132.4c-89.9,0 -163.1,59.4 -163.1,132.4c0,65.4 58,120.2 136.4,130.6c19.1,4.1 16.9,11.1 12.6,36.8c-0.7,4.1 -3.3,16.1 14.1,8.8c17.4,-7.3 93.9,-55.3 128.2,-94.7c23.6,-26 34.9,-52.3 34.9,-81.5z" fill="#03c302"/>
 </g>
</svg>